('C:\\Users\\USER\\Desktop\\2021ITRI\\build\\main\\PKG-00.pkg',
 {'BINARY': 1,
  'DATA': 1,
  'EXECUTABLE': 1,
  'EXTENSION': 1,
  'PYMODULE': 1,
  'PYSOURCE': 1,
  'PYZ': 0},
 [('PYZ-00.pyz',
   'C:\\Users\\USER\\Desktop\\2021ITRI\\build\\main\\PYZ-00.pyz',
   'PYZ'),
  ('struct',
   'c:\\users\\user\\anaconda3\\envs\\evm\\lib\\struct.pyo',
   'PYMODULE'),
  ('pyimod01_os_path',
   'c:\\users\\user\\anaconda3\\envs\\evm\\lib\\site-packages\\PyInstaller\\loader\\pyimod01_os_path.pyc',
   'PYMODULE'),
  ('pyimod02_archive',
   'c:\\users\\user\\anaconda3\\envs\\evm\\lib\\site-packages\\PyInstaller\\loader\\pyimod02_archive.pyc',
   'PYMODULE'),
  ('pyimod03_importers',
   'c:\\users\\user\\anaconda3\\envs\\evm\\lib\\site-packages\\PyInstaller\\loader\\pyimod03_importers.pyc',
   'PYMODULE'),
  ('pyiboot01_bootstrap',
   'c:\\users\\user\\anaconda3\\envs\\evm\\lib\\site-packages\\PyInstaller\\loader\\pyiboot01_bootstrap.py',
   'PYSOURCE'),
  ('pyi_rth_pyqt5',
   'c:\\users\\user\\anaconda3\\envs\\evm\\lib\\site-packages\\PyInstaller\\hooks\\rthooks\\pyi_rth_pyqt5.py',
   'PYSOURCE'),
  ('pyi_rth_multiprocessing',
   'c:\\users\\user\\anaconda3\\envs\\evm\\lib\\site-packages\\PyInstaller\\hooks\\rthooks\\pyi_rth_multiprocessing.py',
   'PYSOURCE'),
  ('pyi_rth_traitlets',
   'c:\\users\\user\\anaconda3\\envs\\evm\\lib\\site-packages\\_pyinstaller_hooks_contrib\\hooks\\rthooks\\pyi_rth_traitlets.py',
   'PYSOURCE'),
  ('pyi_rth_pkgres',
   'c:\\users\\user\\anaconda3\\envs\\evm\\lib\\site-packages\\PyInstaller\\hooks\\rthooks\\pyi_rth_pkgres.py',
   'PYSOURCE'),
  ('pyi_rth__tkinter',
   'c:\\users\\user\\anaconda3\\envs\\evm\\lib\\site-packages\\PyInstaller\\hooks\\rthooks\\pyi_rth__tkinter.py',
   'PYSOURCE'),
  ('pyi_rth_mplconfig',
   'c:\\users\\user\\anaconda3\\envs\\evm\\lib\\site-packages\\PyInstaller\\hooks\\rthooks\\pyi_rth_mplconfig.py',
   'PYSOURCE'),
  ('pyi_rth_certifi',
   'c:\\users\\user\\anaconda3\\envs\\evm\\lib\\site-packages\\_pyinstaller_hooks_contrib\\hooks\\rthooks\\pyi_rth_certifi.py',
   'PYSOURCE'),
  ('main', 'C:\\Users\\USER\\Desktop\\2021ITRI\\main.py', 'PYSOURCE'),
  ('allWin', 'C:\\Users\\USER\\Desktop\\2021ITRI\\allWin.py', 'PYSOURCE'),
  ('videoMag', 'C:\\Users\\USER\\Desktop\\2021ITRI\\videoMag.py', 'PYSOURCE'),
  ('winUI', 'C:\\Users\\USER\\Desktop\\2021ITRI\\winUI.py', 'PYSOURCE'),
  ('main.exe.manifest',
   'C:\\Users\\USER\\Desktop\\2021ITRI\\build\\main\\main.exe.manifest',
   'BINARY')],
 True,
 False,
 False,
 [])
